…
    ## Parsed with column specification:
    ## cols(
    ##   .default = col_double()
    ## )

    ## See spec(...) for full column specifications.

``` r
bwt_data
```

    ## # A tibble: 4,342 x 20
    ##    babysex bhead blength   bwt delwt fincome frace gaweeks malform menarche
    ##    <fct>   <dbl>   <dbl> <dbl> <dbl>   <dbl> <fct>   <dbl> <fct>      <dbl>
    ##  1 female     34      51  3629   177      35 white    39.9 absent        13
    ##  2 male       34      48  3062   156      65 black    25.9 absent        14
    ##  3 female     36      50  3345   148      85 white    39.9 absent        12
    ##  4 male       34      52  3062   157      55 white    40   absent        14
    ##  5 female     34      52  3374   156       5 white    41.6 absent        13
    ##  6 male       33      52  3374   129      55 white    40.7 absent        12
    ##  7 female     33      46  2523   126      96 black    40.3 absent        14
    ##  8 female     33      49  2778   140       5 white    37.4 absent        12
    ##  9 male       36      52  3515   146      85 white    40.3 absent        11
    ## 10 male       33      50  3459   169      75 black    40.7 absent        12
    ## # … with 4,332 more rows, and 10 more variables: mheight <dbl>,
    ## #   momage <dbl>, mrace <fct>, parity <dbl>, pnumlbw <dbl>, pnumsga <dbl>,
    ## #   ppbmi <dbl>, ppwt <dbl>, smoken <dbl>, wtgain <dbl>
…
boot_straps_tidy
```

    ## # A tibble: 5,000 x 4
    ##    .id   beta0 beta1   log
    ##    <chr> <dbl> <dbl> <dbl>
    ##  1 0001   7.28  1.04  2.03
    ##  2 0002   7.19  1.03  2.01
    ##  3 0003   7.34  1.04  2.03
    ##  4 0004   7.01  1.06  2.00
    ##  5 0005   7.31  1.02  2.01
    ##  6 0006   6.89  1.06  1.99
    ##  7 0007   7.10  1.04  2.00
    ##  8 0008   7.21  1.04  2.02
    ##  9 0009   7.11  1.04  2.00
    ## 10 0010   7.25  1.04  2.02
    ## # … with 4,990 more rows

``` r
boot_straps_glance = weather_df %>% 
  bootstrap(n=5000) %>% 
  mutate(models = map(strap, ~lm(tmax ~ tmin, data = .x) ),
         results = map(models, broom::glance)) %>% 
  select(-strap, -models) %>% 
  unnest(results) %>% 
  select(.id, r.squared)

boot_straps_glance
```

    ## # A tibble: 5,000 x 2
    ##    .id   r.squared
    ##    <chr>     <dbl>
    ##  1 0001      0.893
    ##  2 0002      0.912
    ##  3 0003      0.917
    ##  4 0004      0.901
    ##  5 0005      0.920
    ##  6 0006      0.923
    ##  7 0007      0.904
    ##  8 0008      0.901
    ##  9 0009      0.906
    ## 10 0010      0.908
    ## # … with 4,990 more rows
…
